tb/RISCV_tb.vcd
$date
	Thu Apr 23 12:20:22 2026
$end
$version
	Questa Altera Starter FPGA Edition Version 2025.2
$end
$timescale
	1ps
$end

$scope module RISCV_tb $end
$var reg 1 ! clk $end
$var reg 1 " rst $end
$var reg 32 # pc_reg [31:0] $end
$var reg 32 $ pc_next [31:0] $end
$var reg 32 % wb_reg [31:0] $end
$var reg 32 & inst_reg [31:0] $end
$var reg 5 ' rs1 [4:0] $end
$var reg 5 ( rs2 [4:0] $end
$var reg 5 ) rd [4:0] $end
$var reg 32 * imm [31:0] $end
$var reg 4 + alu_op [3:0] $end
$var reg 1 , alu_src_imm $end
$var reg 1 - alu_src_pc $end
$var reg 1 . mem_load $end
$var reg 1 / mem_store $end
$var integer 32 0 load_op $end
$var integer 32 1 store_op $end
$var reg 1 2 wb $end
$var integer 32 3 wb_src $end
$var reg 1 4 branch $end
$var reg 1 5 jump $end
$var integer 32 6 branch_op $end
$var reg 32 7 rs1_data [31:0] $end
$var reg 32 8 rs2_data [31:0] $end
$var reg 32 9 alu_in1 [31:0] $end
$var reg 32 : alu_in2 [31:0] $end
$var reg 32 ; alu_out [31:0] $end
$var reg 1 < zero_flag $end
$var reg 1 = take_branch $end
$var reg 32 > mem_load_data [31:0] $end
$var reg 32 ? mem_addr [31:0] $end
$var reg 32 @ mem_store_data [31:0] $end
$var reg 4 A mem_byte_en [3:0] $end
$var reg 32 B mem_q [31:0] $end
$var reg 8 C load_byte [7:0] $end
$var reg 16 D load_half [15:0] $end

$scope module dut $end
$var parameter 32 E RESET_PC $end
$var parameter 32 F LAST_INST_PC $end
$var wire 1 G clk $end
$var wire 1 H rst $end
$var reg 32 I pc_reg [31:0] $end
$var reg 32 J pc_next [31:0] $end
$var reg 32 K wb_reg [31:0] $end
$var reg 32 L inst_reg [31:0] $end
$var reg 5 M rs1 [4:0] $end
$var reg 5 N rs2 [4:0] $end
$var reg 5 O rd [4:0] $end
$var reg 32 P imm [31:0] $end
$var reg 4 Q alu_op [3:0] $end
$var reg 1 R alu_src_imm $end
$var reg 1 S alu_src_pc $end
$var reg 1 T mem_load $end
$var reg 1 U mem_store $end
$var integer 32 V load_op $end
$var integer 32 W store_op $end
$var reg 1 X wb $end
$var integer 32 Y wb_src $end
$var reg 1 Z branch $end
$var reg 1 [ jump $end
$var integer 32 \ branch_op $end
$var reg 32 ] rs1_data [31:0] $end
$var reg 32 ^ rs2_data [31:0] $end
$var reg 32 _ alu_in1 [31:0] $end
$var reg 32 ` alu_in2 [31:0] $end
$var reg 32 a alu_out [31:0] $end
$var reg 1 b zero_flag $end
$var reg 1 c take_branch $end
$var reg 32 d mem_load_data [31:0] $end
$var reg 32 e mem_addr [31:0] $end
$var reg 32 f mem_store_data [31:0] $end
$var reg 4 g mem_byte_en [3:0] $end
$var reg 32 h mem_q [31:0] $end
$var reg 8 i load_byte [7:0] $end
$var reg 16 j load_half [15:0] $end

$scope module memory $end
$var parameter 32 k ROW_BITS $end
$var parameter 32 l COL_BITS $end
$var parameter 32 m ROWS $end
$var parameter 32 n COLS $end
$var wire 1 o address [31] $end
$var wire 1 p address [30] $end
$var wire 1 q address [29] $end
$var wire 1 r address [28] $end
$var wire 1 s address [27] $end
$var wire 1 t address [26] $end
$var wire 1 u address [25] $end
$var wire 1 v address [24] $end
$var wire 1 w address [23] $end
$var wire 1 x address [22] $end
$var wire 1 y address [21] $end
$var wire 1 z address [20] $end
$var wire 1 { address [19] $end
$var wire 1 | address [18] $end
$var wire 1 } address [17] $end
$var wire 1 ~ address [16] $end
$var wire 1 !! address [15] $end
$var wire 1 "! address [14] $end
$var wire 1 #! address [13] $end
$var wire 1 $! address [12] $end
$var wire 1 %! address [11] $end
$var wire 1 &! address [10] $end
$var wire 1 '! address [9] $end
$var wire 1 (! address [8] $end
$var wire 1 )! address [7] $end
$var wire 1 *! address [6] $end
$var wire 1 +! address [5] $end
$var wire 1 ,! address [4] $end
$var wire 1 -! address [3] $end
$var wire 1 .! address [2] $end
$var wire 1 /! address [1] $end
$var wire 1 0! address [0] $end
$var wire 1 G clock $end
$var wire 1 1! data [31] $end
$var wire 1 2! data [30] $end
$var wire 1 3! data [29] $end
$var wire 1 4! data [28] $end
$var wire 1 5! data [27] $end
$var wire 1 6! data [26] $end
$var wire 1 7! data [25] $end
$var wire 1 8! data [24] $end
$var wire 1 9! data [23] $end
$var wire 1 :! data [22] $end
$var wire 1 ;! data [21] $end
$var wire 1 <! data [20] $end
$var wire 1 =! data [19] $end
$var wire 1 >! data [18] $end
$var wire 1 ?! data [17] $end
$var wire 1 @! data [16] $end
$var wire 1 A! data [15] $end
$var wire 1 B! data [14] $end
$var wire 1 C! data [13] $end
$var wire 1 D! data [12] $end
$var wire 1 E! data [11] $end
$var wire 1 F! data [10] $end
$var wire 1 G! data [9] $end
$var wire 1 H! data [8] $end
$var wire 1 I! data [7] $end
$var wire 1 J! data [6] $end
$var wire 1 K! data [5] $end
$var wire 1 L! data [4] $end
$var wire 1 M! data [3] $end
$var wire 1 N! data [2] $end
$var wire 1 O! data [1] $end
$var wire 1 P! data [0] $end
$var wire 1 Q! byte_en [3] $end
$var wire 1 R! byte_en [2] $end
$var wire 1 S! byte_en [1] $end
$var wire 1 T! byte_en [0] $end
$var wire 1 U! wren $end
$var reg 32 V! q [31:0] $end
$var reg 14 W! word_addr [13:0] $end
$var reg 7 X! row_sel [6:0] $end
$var reg 7 Y! col_sel [6:0] $end
$upscope $end

$scope module decoder $end
$var parameter 7 Z! R $end
$var parameter 7 [! I $end
$var parameter 7 \! L $end
$var parameter 7 ]! S $end
$var parameter 7 ^! B $end
$var parameter 7 _! JAL $end
$var parameter 7 `! JALR $end
$var parameter 7 a! LUI $end
$var parameter 7 b! AUIPC $end
$var wire 1 c! inst [31] $end
$var wire 1 d! inst [30] $end
$var wire 1 e! inst [29] $end
$var wire 1 f! inst [28] $end
$var wire 1 g! inst [27] $end
$var wire 1 h! inst [26] $end
$var wire 1 i! inst [25] $end
$var wire 1 j! inst [24] $end
$var wire 1 k! inst [23] $end
$var wire 1 l! inst [22] $end
$var wire 1 m! inst [21] $end
$var wire 1 n! inst [20] $end
$var wire 1 o! inst [19] $end
$var wire 1 p! inst [18] $end
$var wire 1 q! inst [17] $end
$var wire 1 r! inst [16] $end
$var wire 1 s! inst [15] $end
$var wire 1 t! inst [14] $end
$var wire 1 u! inst [13] $end
$var wire 1 v! inst [12] $end
$var wire 1 w! inst [11] $end
$var wire 1 x! inst [10] $end
$var wire 1 y! inst [9] $end
$var wire 1 z! inst [8] $end
$var wire 1 {! inst [7] $end
$var wire 1 |! inst [6] $end
$var wire 1 }! inst [5] $end
$var wire 1 ~! inst [4] $end
$var wire 1 !" inst [3] $end
$var wire 1 "" inst [2] $end
$var wire 1 #" inst [1] $end
$var wire 1 $" inst [0] $end
$var reg 5 %" rs1 [4:0] $end
$var reg 5 &" rs2 [4:0] $end
$var reg 5 '" rd [4:0] $end
$var reg 32 (" imm [31:0] $end
$var reg 4 )" alu_op [3:0] $end
$var reg 1 *" alu_src_imm $end
$var reg 1 +" alu_src_pc $end
$var reg 1 ," mem_load $end
$var reg 1 -" mem_store $end
$var integer 32 ." load_op $end
$var integer 32 /" store_op $end
$var reg 1 0" wb $end
$var integer 32 1" wb_src $end
$var reg 1 2" branch $end
$var reg 1 3" jump $end
$var integer 32 4" branch_op $end
$upscope $end

$scope module regfile $end
$var wire 1 G clk $end
$var wire 1 H rst $end
$var wire 1 5" rs1 [4] $end
$var wire 1 6" rs1 [3] $end
$var wire 1 7" rs1 [2] $end
$var wire 1 8" rs1 [1] $end
$var wire 1 9" rs1 [0] $end
$var wire 1 :" rs2 [4] $end
$var wire 1 ;" rs2 [3] $end
$var wire 1 <" rs2 [2] $end
$var wire 1 =" rs2 [1] $end
$var wire 1 >" rs2 [0] $end
$var wire 1 ?" rd [4] $end
$var wire 1 @" rd [3] $end
$var wire 1 A" rd [2] $end
$var wire 1 B" rd [1] $end
$var wire 1 C" rd [0] $end
$var wire 1 D" write_data [31] $end
$var wire 1 E" write_data [30] $end
$var wire 1 F" write_data [29] $end
$var wire 1 G" write_data [28] $end
$var wire 1 H" write_data [27] $end
$var wire 1 I" write_data [26] $end
$var wire 1 J" write_data [25] $end
$var wire 1 K" write_data [24] $end
$var wire 1 L" write_data [23] $end
$var wire 1 M" write_data [22] $end
$var wire 1 N" write_data [21] $end
$var wire 1 O" write_data [20] $end
$var wire 1 P" write_data [19] $end
$var wire 1 Q" write_data [18] $end
$var wire 1 R" write_data [17] $end
$var wire 1 S" write_data [16] $end
$var wire 1 T" write_data [15] $end
$var wire 1 U" write_data [14] $end
$var wire 1 V" write_data [13] $end
$var wire 1 W" write_data [12] $end
$var wire 1 X" write_data [11] $end
$var wire 1 Y" write_data [10] $end
$var wire 1 Z" write_data [9] $end
$var wire 1 [" write_data [8] $end
$var wire 1 \" write_data [7] $end
$var wire 1 ]" write_data [6] $end
$var wire 1 ^" write_data [5] $end
$var wire 1 _" write_data [4] $end
$var wire 1 `" write_data [3] $end
$var wire 1 a" write_data [2] $end
$var wire 1 b" write_data [1] $end
$var wire 1 c" write_data [0] $end
$var wire 1 d" we $end
$var reg 32 e" rs1_data [31:0] $end
$var reg 32 f" rs2_data [31:0] $end
$upscope $end

$scope module alu $end
$var wire 1 g" in1 [31] $end
$var wire 1 h" in1 [30] $end
$var wire 1 i" in1 [29] $end
$var wire 1 j" in1 [28] $end
$var wire 1 k" in1 [27] $end
$var wire 1 l" in1 [26] $end
$var wire 1 m" in1 [25] $end
$var wire 1 n" in1 [24] $end
$var wire 1 o" in1 [23] $end
$var wire 1 p" in1 [22] $end
$var wire 1 q" in1 [21] $end
$var wire 1 r" in1 [20] $end
$var wire 1 s" in1 [19] $end
$var wire 1 t" in1 [18] $end
$var wire 1 u" in1 [17] $end
$var wire 1 v" in1 [16] $end
$var wire 1 w" in1 [15] $end
$var wire 1 x" in1 [14] $end
$var wire 1 y" in1 [13] $end
$var wire 1 z" in1 [12] $end
$var wire 1 {" in1 [11] $end
$var wire 1 |" in1 [10] $end
$var wire 1 }" in1 [9] $end
$var wire 1 ~" in1 [8] $end
$var wire 1 !# in1 [7] $end
$var wire 1 "# in1 [6] $end
$var wire 1 ## in1 [5] $end
$var wire 1 $# in1 [4] $end
$var wire 1 %# in1 [3] $end
$var wire 1 &# in1 [2] $end
$var wire 1 '# in1 [1] $end
$var wire 1 (# in1 [0] $end
$var wire 1 )# in2 [31] $end
$var wire 1 *# in2 [30] $end
$var wire 1 +# in2 [29] $end
$var wire 1 ,# in2 [28] $end
$var wire 1 -# in2 [27] $end
$var wire 1 .# in2 [26] $end
$var wire 1 /# in2 [25] $end
$var wire 1 0# in2 [24] $end
$var wire 1 1# in2 [23] $end
$var wire 1 2# in2 [22] $end
$var wire 1 3# in2 [21] $end
$var wire 1 4# in2 [20] $end
$var wire 1 5# in2 [19] $end
$var wire 1 6# in2 [18] $end
$var wire 1 7# in2 [17] $end
$var wire 1 8# in2 [16] $end
$var wire 1 9# in2 [15] $end
$var wire 1 :# in2 [14] $end
$var wire 1 ;# in2 [13] $end
$var wire 1 <# in2 [12] $end
$var wire 1 =# in2 [11] $end
$var wire 1 ># in2 [10] $end
$var wire 1 ?# in2 [9] $end
$var wire 1 @# in2 [8] $end
$var wire 1 A# in2 [7] $end
$var wire 1 B# in2 [6] $end
$var wire 1 C# in2 [5] $end
$var wire 1 D# in2 [4] $end
$var wire 1 E# in2 [3] $end
$var wire 1 F# in2 [2] $end
$var wire 1 G# in2 [1] $end
$var wire 1 H# in2 [0] $end
$var wire 1 I# op [3] $end
$var wire 1 J# op [2] $end
$var wire 1 K# op [1] $end
$var wire 1 L# op [0] $end
$var reg 32 M# out [31:0] $end
$var reg 1 N# zero_flag $end
$upscope $end
$upscope $end
$upscope $end
$enddefinitions $end
#0
$dumpvars
1!
1"
b10000000010010100 #
b10000000010011000 $
b1000000000000000000000 %
b1000000000000100110111 &
b0 '
b10 (
b10 )
b1000000000000000000000 *
b0 +
1,
0-
0.
0/
12
04
05
b0 7
b0 8
b0 9
b1000000000000000000000 :
b1000000000000000000000 ;
0<
0=
b0 >
b1000000000000000000000 ?
b0 @
b0 A
bx B
bx C
bx D
b10000000010010100 I
b10000000010011000 J
b1000000000000000000000 K
b1000000000000100110111 L
b0 M
b10 N
b10 O
b1000000000000000000000 P
b0 Q
1R
0S
0T
0U
1X
0Z
0[
b0 ]
b0 ^
b0 _
b1000000000000000000000 `
b1000000000000000000000 a
0b
0c
b0 d
b1000000000000000000000 e
b0 f
b0 g
bx h
bx i
bx j
bx V!
b0 W!
b0 X!
b0 Y!
b0 %"
b10 &"
b10 '"
b1000000000000000000000 ("
b0 )"
1*"
0+"
0,"
0-"
10"
02"
03"
b0 e"
b0 f"
b1000000000000000000000 M#
0N#
b10000000010010100 E
b10000000011001000 F
b111 k
b111 l
b10000000 m
b10000000 n
b110011 Z!
b10011 [!
b11 \!
b100011 ]!
b1100011 ^!
b1101111 _!
b1100111 `!
b110111 a!
b10111 b!
b0 0
b0 1
b0 3
b0 6
b0 V
b0 W
b0 Y
b0 \
b0 ."
b0 /"
b0 1"
b0 4"
1H
1G
0L#
0K#
0J#
0I#
0H#
0G#
0F#
0E#
0D#
0C#
0B#
0A#
0@#
0?#
0>#
0=#
0<#
0;#
0:#
09#
08#
07#
06#
05#
04#
13#
02#
01#
00#
0/#
0.#
0-#
0,#
0+#
0*#
0)#
0(#
0'#
0&#
0%#
0$#
0##
0"#
0!#
0~"
0}"
0|"
0{"
0z"
0y"
0x"
0w"
0v"
0u"
0t"
0s"
0r"
0q"
0p"
0o"
0n"
0m"
0l"
0k"
0j"
0i"
0h"
0g"
1d"
0c"
0b"
0a"
0`"
0_"
0^"
0]"
0\"
0["
0Z"
0Y"
0X"
0W"
0V"
0U"
0T"
0S"
0R"
0Q"
0P"
0O"
1N"
0M"
0L"
0K"
0J"
0I"
0H"
0G"
0F"
0E"
0D"
0C"
1B"
0A"
0@"
0?"
0>"
1="
0<"
0;"
0:"
09"
08"
07"
06"
05"
1$"
1#"
1""
0!"
1~!
1}!
0|!
0{!
1z!
0y!
0x!
0w!
0v!
0u!
0t!
0s!
0r!
0q!
0p!
0o!
0n!
1m!
0l!
0k!
0j!
0i!
0h!
0g!
0f!
0e!
0d!
0c!
0U!
0T!
0S!
0R!
0Q!
0P!
0O!
0N!
0M!
0L!
0K!
0J!
0I!
0H!
0G!
0F!
0E!
0D!
0C!
0B!
0A!
0@!
0?!
0>!
0=!
0<!
0;!
0:!
09!
08!
07!
06!
05!
04!
03!
02!
01!
00!
0/!
0.!
0-!
0,!
0+!
0*!
0)!
0(!
0'!
0&!
0%!
0$!
0#!
0"!
0!!
0~
0}
0|
0{
0z
1y
0x
0w
0v
0u
0t
0s
0r
0q
0p
0o
$end
#5000
0!
0"
0G
0H
#10000
1!
1G
b10000000010011000 I
b1000000000000000000000 f"
b10000000010011000 #
b1000000000000000000000 ^
b1000000000000000000000 8
b100000000000000011101111 L
b10000000010011100 J
b10000000010011100 $
b100000000000000011101111 &
1!"
0~!
1|!
1{!
0z!
0m!
1k!
b1 '"
b1000 &"
0*"
00"
b0 ("
1+"
1*"
b1000 ("
13"
1[
1S
b1000 P
0X
b1000 N
b1 O
b1 )
b1000 (
02
b1000 *
1-
15
0d"
1C"
0B"
0="
1;"
b0 f"
b0 ^
b0 8
b1000 `
b10000000010011000 _
b10000000010100000 J
b10000000010100000 $
b10000000010011000 9
b1000 :
1%#
1$#
1!#
1v"
1E#
03#
b10000000010100000 M#
b10000000010100000 a
b10000000010100000 ;
b10000000010100000 e
b10000000010100000 ?
1+!
1)!
1~
0y
b101000 W!
b101000 Y!
b10000000010100000 K
b10000000010011100 J
b10000000010100000 J
b10000000010100000 %
1^"
1\"
1S"
0N"
#15000
0!
0G
#20000
1!
1G
b10000000010100000 I
b10000000010100000 #
b100000000010100010011 L
b10000000010100100 J
b10000000010101000 J
b10000000010100000 _
b10000000010100000 9
b10000000010101000 $
b100000000010100010011 &
0%#
0$#
1##
0""
0!"
1~!
0}!
0|!
0{!
1z!
1x!
1n!
0k!
b1010 '"
b1 &"
0*"
0+"
03"
b0 ("
1*"
10"
b1 ("
b10000000010101000 M#
b10000000010101000 a
1X
b1 P
0[
0S
b1 N
b1010 O
b1010 )
b1 (
0-
05
b1 *
12
b10000000010101000 ;
b10000000010101000 e
1d"
0C"
1B"
1@"
1>"
0;"
b10000000010101000 ?
1-!
b101010 W!
b101010 Y!
b0 _
b1 `
b10000000010101000 K
b10000000010100100 J
b10000000010100100 $
b10000000010101000 %
b1 :
b0 9
1`"
1H#
0E#
0##
0!#
0v"
b1 M#
b1 a
b1 ;
b1 e
b1 ?
10!
0-!
0+!
0)!
0~
b0 W!
b0 Y!
b1 K
b1 %
1c"
0`"
0^"
0\"
0S"
#25000
0!
0G
#30000
1!
1G
b10000000010100100 I
b10000000010100100 #
b100000000010110010011 L
b10000000010101000 J
b10000000010101000 $
b100000000010110010011 &
1{!
b1011 '"
0*"
00"
b0 ("
1*"
10"
b1 ("
b1011 O
b1011 )
1C"
#35000
0!
0G
#40000
1!
1G
b10000000010101000 I
b10000000010101000 #
b10000000000011000010011 L
b10000000010101100 J
b10000000010101100 $
b10000000000011000010011 &
0{!
0z!
1y!
0n!
1l!
b1100 '"
b100 &"
0*"
00"
b0 ("
1*"
10"
b100 ("
b100 P
b100 N
b1100 O
b1100 )
b100 (
b100 *
0C"
0B"
1A"
0>"
1<"
b100 `
b100 :
0H#
1F#
b100 M#
b100 a
b100 ;
b100 e
b100 ?
00!
1.!
b1 W!
b1 Y!
b100 K
b100 %
0c"
1a"
#45000
0!
0G
#50000
1!
1G
b10000000010101100 I
b10000000010101100 #
b1100000110001100011 L
b10000000010110000 J
b10000000010110000 $
b1100000110001100011 &
0~!
1}!
1|!
0y!
1w!
1q!
1p!
0l!
b11000 '"
b1100 %"
b0 &"
0*"
00"
b0 ("
b11000 ("
12"
1Z
b11000 P
0X
0R
b0 N
b1100 M
b11000 O
b11000 )
b1100 '
b0 (
0,
02
b11000 *
14
0d"
0A"
1?"
17"
16"
0<"
b100 e"
b100 ]
b100 7
b100 _
b0 `
b0 :
b100 9
0F#
1&#
#55000
0!
0G
#60000
1!
1G
b10000000010110000 I
b10000000010110000 #
b1010000011010110011 L
b10000000010110100 J
b10000000010110100 $
b1010000011010110011 &
1~!
0|!
1{!
1y!
0w!
1r!
0q!
b1101 '"
b1010 %"
02"
b0 ("
10"
1X
b0 P
0Z
b1010 M
b1101 O
b1101 )
b1010 '
04
b0 *
12
1d"
1C"
1A"
0?"
18"
07"
b1 e"
b1 ]
b1 7
b1 _
b1 9
1(#
0&#
b1 M#
b1 a
b1 ;
b1 e
b1 ?
10!
0.!
b0 W!
b0 Y!
b1 K
b1 %
1c"
0a"
#65000
0!
0G
#70000
1!
1G
b10000000010110100 I
b10000000010110100 #
b101101010000010100110011 L
b10000000010111000 J
b10000000010111000 $
b101101010000010100110011 &
0{!
1z!
0y!
1n!
1m!
1k!
b1010 '"
b1011 &"
00"
10"
b1011 N
b1010 O
b1010 )
b1011 (
0C"
1B"
0A"
1>"
1="
1;"
b1 f"
b1 ^
b1 8
b1 `
b1 :
1H#
b10 M#
b10 a
b10 ;
b10 e
b10 ?
00!
1/!
b10 K
b10 %
0c"
1b"
#75000
0!
0G
#80000
1!
1G
b10000000010111000 I
b10 e"
b10000000010111000 #
b10 ]
b10 7
b1101000010110110011 L
b10000000010111100 J
b10 _
b10 9
b10000000010111100 $
b1101000010110110011 &
0(#
1'#
1{!
1s!
0r!
1q!
0n!
0m!
0k!
b1011 '"
b1101 %"
b0 &"
00"
10"
b11 M#
b11 a
b0 N
b1101 M
b1011 O
b1011 )
b1101 '
b0 (
b11 ;
b11 e
1C"
19"
08"
17"
0>"
0="
0;"
b0 f"
b1 e"
b11 ?
b1 ]
b0 ^
b0 8
b1 7
10!
b0 `
b1 _
b11 K
b11 %
b1 9
b0 :
1c"
1(#
0'#
0H#
b1 M#
b1 a
b1 ;
b1 e
b1 ?
0/!
b1 K
b1 %
0b"
#85000
0!
0G
#90000
1!
1G
b10000000010111100 I
b10000000010111100 #
b11111111111101100000011000010011 L
b10000000011000000 J
b10000000011000000 $
b11111111111101100000011000010011 &
0}!
0{!
0z!
1y!
0s!
1n!
1m!
1l!
1k!
1j!
1i!
1h!
1g!
1f!
1e!
1d!
1c!
b1100 '"
b1100 %"
b11111 &"
00"
1*"
10"
b11111111111111111111111111111111 ("
b11111111111111111111111111111111 P
1R
b11111 N
b1100 M
b1100 O
b1100 )
b1100 '
b11111 (
1,
b11111111111111111111111111111111 *
0C"
0B"
1A"
09"
1>"
1="
1<"
1;"
1:"
b100 e"
b100 ]
b100 7
b100 _
b11111111111111111111111111111111 `
b11111111111111111111111111111111 :
b100 9
1H#
1G#
1F#
1E#
1D#
1C#
1B#
1A#
1@#
1?#
1>#
1=#
1<#
1;#
1:#
19#
18#
17#
16#
15#
14#
13#
12#
11#
10#
1/#
1.#
1-#
1,#
1+#
1*#
1)#
0(#
1&#
b11 M#
b11 a
b11 ;
b11 e
b11 ?
1/!
b11 K
b11 %
1b"
#95000
0!
0G
#100000
1!
1G
b10000000011000000 I
b10000000011000000 #
b11 e"
b11 ]
b11 7
b11111110110111111111000001101111 L
b10000000011000100 J
b11 _
b11 9
b10000000011000100 $
b11111110110111111111000001101111 &
1(#
1'#
0&#
1""
1!"
0~!
1}!
1|!
0y!
0x!
1v!
1u!
1t!
1s!
1r!
1o!
0m!
0j!
b0 '"
b11111 %"
b1101 &"
0*"
00"
b0 ("
1+"
1*"
b11111111111111111111111111101100 ("
13"
b10 M#
b10 a
1[
1S
b11111111111111111111111111101100 P
0X
b1101 N
b11111 M
b0 O
b0 )
b11111 '
b1101 (
02
b11111111111111111111111111101100 *
1-
15
b10 ;
b10 e
0d"
0A"
0@"
19"
18"
15"
0="
0:"
b1 f"
b0 e"
b10 ?
b0 ]
b1 ^
b1 8
b0 7
00!
b11111111111111111111111111101100 `
b10000000011000000 _
b10000000010101100 J
b10 K
b10 %
b10000000010101100 $
b10000000011000000 9
b11111111111111111111111111101100 :
0c"
0(#
0'#
1"#
1!#
1v"
0H#
0G#
0D#
b10000000010101100 M#
b10000000010101100 a
b10000000010101100 ;
b10000000010101100 e
b10000000010101100 ?
0/!
1.!
1-!
1+!
1)!
1~
b101011 W!
b101011 Y!
b10000000010101100 K
b10000000011000100 J
b10000000010101100 J
b10000000010101100 %
0b"
1a"
1`"
1^"
1\"
1S"
#105000
0!
0G
#110000
1!
1G
b10000000010101100 I
b10000000010101100 #
b1100000110001100011 L
b10000000010110000 J
b10000000010011000 J
b10000000010101100 _
b10000000010101100 9
b10000000010011000 $
b1100000110001100011 &
1&#
1%#
1##
0"#
0""
0!"
1x!
1w!
0v!
0u!
0t!
0s!
0r!
0o!
0n!
0l!
0k!
0i!
0h!
0g!
0f!
0e!
0d!
0c!
b11000 '"
b1100 %"
b0 &"
0*"
0+"
03"
b0 ("
b11000 ("
12"
b10000000010011000 M#
b10000000010011000 a
1Z
b11000 P
0[
0S
0R
b0 N
b1100 M
b11000 O
b11000 )
b1100 '
b0 (
0,
0-
05
b11000 *
14
b10000000010011000 ;
b10000000010011000 e
1@"
1?"
09"
08"
05"
0>"
0<"
0;"
b0 f"
b11 e"
b10000000010011000 ?
b11 ]
b0 ^
b0 8
b11 7
0.!
1,!
0+!
b100110 W!
b100110 Y!
b11 _
b0 `
b10000000010011000 K
b10000000010110000 J
b10000000010110000 $
b10000000010011000 %
b0 :
b11 9
0a"
1_"
0^"
0F#
0E#
0C#
0B#
0A#
0@#
0?#
0>#
0=#
0<#
0;#
0:#
09#
08#
07#
06#
05#
04#
03#
02#
01#
00#
0/#
0.#
0-#
0,#
0+#
0*#
0)#
1(#
1'#
0&#
0%#
0##
0!#
0v"
b11 M#
b11 a
b11 ;
b11 e
b11 ?
10!
1/!
0-!
0,!
0)!
0~
b0 W!
b0 Y!
b11 K
b11 %
1c"
1b"
0`"
0_"
0\"
0S"
#115000
0!
0G
#120000
1!
1G
b10000000010110000 I
b10000000010110000 #
b1010000011010110011 L
b10000000010110100 J
b10000000010110100 $
b1010000011010110011 &
1~!
0|!
1{!
1y!
0w!
1r!
0q!
b1101 '"
b1010 %"
02"
b0 ("
10"
1X
b0 P
0Z
b1010 M
b1101 O
b1101 )
b1010 '
04
b0 *
12
1d"
1C"
1A"
0?"
18"
07"
b10 e"
b10 ]
b10 7
b10 _
b10 9
0(#
b10 M#
b10 a
b10 ;
b10 e
b10 ?
00!
b10 K
b10 %
0c"
#125000
0!
0G
#130000
1!
1G
b10000000010110100 I
b10000000010110100 #
b101101010000010100110011 L
b10000000010111000 J
b10000000010111000 $
b101101010000010100110011 &
0{!
1z!
0y!
1n!
1m!
1k!
b1010 '"
b1011 &"
00"
10"
b1011 N
b1010 O
b1010 )
b1011 (
0C"
1B"
0A"
1>"
1="
1;"
b1 f"
b1 ^
b1 8
b1 `
b1 :
1H#
b11 M#
b11 a
b11 ;
b11 e
b11 ?
10!
b11 K
b11 %
1c"
#135000
0!
0G
#140000
1!
1G
b10000000010111000 I
b11 e"
b10000000010111000 #
b11 ]
b11 7
b1101000010110110011 L
b10000000010111100 J
b11 _
b11 9
b10000000010111100 $
b1101000010110110011 &
1(#
1{!
1s!
0r!
1q!
0n!
0m!
0k!
b1011 '"
b1101 %"
b0 &"
00"
10"
b100 M#
b100 a
b0 N
b1101 M
b1011 O
b1011 )
b1101 '
b0 (
b100 ;
b100 e
1C"
19"
08"
17"
0>"
0="
0;"
b0 f"
b10 e"
b100 ?
b10 ]
b0 ^
b0 8
b10 7
00!
0/!
1.!
b1 W!
b1 Y!
b0 `
b10 _
b100 K
b100 %
b10 9
b0 :
0c"
0b"
1a"
0(#
0H#
b10 M#
b10 a
b10 ;
b10 e
b10 ?
1/!
0.!
b0 W!
b0 Y!
b10 K
b10 %
1b"
0a"
#145000
0!
0G
#150000
1!
1G
b10000000010111100 I
b10000000010111100 #
b11111111111101100000011000010011 L
b10000000011000000 J
b10000000011000000 $
b11111111111101100000011000010011 &
0}!
0{!
0z!
1y!
0s!
1n!
1m!
1l!
1k!
1j!
1i!
1h!
1g!
1f!
1e!
1d!
1c!
b1100 '"
b1100 %"
b11111 &"
00"
1*"
10"
b11111111111111111111111111111111 ("
b11111111111111111111111111111111 P
1R
b11111 N
b1100 M
b1100 O
b1100 )
b1100 '
b11111 (
1,
b11111111111111111111111111111111 *
0C"
0B"
1A"
09"
1>"
1="
1<"
1;"
1:"
b11 e"
b11 ]
b11 7
b11 _
b11111111111111111111111111111111 `
b11111111111111111111111111111111 :
b11 9
1H#
1G#
1F#
1E#
1D#
1C#
1B#
1A#
1@#
1?#
1>#
1=#
1<#
1;#
1:#
19#
18#
17#
16#
15#
14#
13#
12#
11#
10#
1/#
1.#
1-#
1,#
1+#
1*#
1)#
1(#
#155000
0!
0G
#160000
1!
1G
b10000000011000000 I
b10 e"
b10000000011000000 #
b10 ]
b10 7
b11111110110111111111000001101111 L
b10000000011000100 J
b10 _
b10 9
b10000000011000100 $
b11111110110111111111000001101111 &
0(#
1""
1!"
0~!
1}!
1|!
0y!
0x!
1v!
1u!
1t!
1s!
1r!
1o!
0m!
0j!
b0 '"
b11111 %"
b1101 &"
0*"
00"
b0 ("
1+"
1*"
b11111111111111111111111111101100 ("
13"
b1 M#
b1 a
1[
1S
b11111111111111111111111111101100 P
0X
b1101 N
b11111 M
b0 O
b0 )
b11111 '
b1101 (
02
b11111111111111111111111111101100 *
1-
15
b1 ;
b1 e
0d"
0A"
0@"
19"
18"
15"
0="
0:"
b10 f"
b0 e"
b1 ?
b0 ]
b10 ^
b10 8
b0 7
10!
0/!
b11111111111111111111111111101100 `
b10000000011000000 _
b1 K
b10000000010101100 J
b10000000010101100 $
b1 %
b10000000011000000 9
b11111111111111111111111111101100 :
1c"
0b"
0'#
1"#
1!#
1v"
0H#
0G#
0D#
b10000000010101100 M#
b10000000010101100 a
b10000000010101100 ;
b10000000010101100 e
b10000000010101100 ?
00!
1.!
1-!
1+!
1)!
1~
b101011 W!
b101011 Y!
b10000000010101100 K
b10000000011000100 J
b10000000010101100 J
b10000000010101100 %
0c"
1a"
1`"
1^"
1\"
1S"
#165000
0!
0G
