tb/RISCV_tb.vcd
$date
	Mon Apr 13 11:01:34 2026
$end
$version
	Questa Altera Starter FPGA Edition Version 2025.2
$end
$timescale
	1ps
$end

$scope module RISCV_tb $end
$var reg 1 ! clk $end
$var reg 1 " rst $end
$var reg 32 # pc_reg [31:0] $end
$var reg 32 $ pc_next [31:0] $end
$var reg 32 % wb_reg [31:0] $end
$var reg 32 & inst_reg [31:0] $end
$var reg 5 ' rs1 [4:0] $end
$var reg 5 ( rs2 [4:0] $end
$var reg 5 ) rd [4:0] $end
$var reg 32 * imm [31:0] $end
$var reg 4 + alu_op [3:0] $end
$var reg 1 , alu_src_imm $end
$var reg 1 - alu_src_pc $end
$var reg 1 . mem_load $end
$var reg 1 / mem_store $end
$var integer 32 0 load_op $end
$var integer 32 1 store_op $end
$var reg 1 2 wb $end
$var integer 32 3 wb_src $end
$var reg 1 4 branch $end
$var reg 1 5 jump $end
$var integer 32 6 branch_op $end
$var reg 32 7 rs1_data [31:0] $end
$var reg 32 8 rs2_data [31:0] $end
$var reg 32 9 alu_in1 [31:0] $end
$var reg 32 : alu_in2 [31:0] $end
$var reg 32 ; alu_out [31:0] $end
$var reg 1 < zero_flag $end
$var reg 1 = take_branch $end

$scope module dut $end
$var parameter 32 > RESET_PC $end
$var parameter 32 ? LAST_INST_PC $end
$var wire 1 @ clk $end
$var wire 1 A rst $end
$var reg 32 B pc_reg [31:0] $end
$var reg 32 C pc_next [31:0] $end
$var reg 32 D wb_reg [31:0] $end
$var reg 32 E inst_reg [31:0] $end
$var reg 5 F rs1 [4:0] $end
$var reg 5 G rs2 [4:0] $end
$var reg 5 H rd [4:0] $end
$var reg 32 I imm [31:0] $end
$var reg 4 J alu_op [3:0] $end
$var reg 1 K alu_src_imm $end
$var reg 1 L alu_src_pc $end
$var reg 1 M mem_load $end
$var reg 1 N mem_store $end
$var integer 32 O load_op $end
$var integer 32 P store_op $end
$var reg 1 Q wb $end
$var integer 32 R wb_src $end
$var reg 1 S branch $end
$var reg 1 T jump $end
$var integer 32 U branch_op $end
$var reg 32 V rs1_data [31:0] $end
$var reg 32 W rs2_data [31:0] $end
$var reg 32 X alu_in1 [31:0] $end
$var reg 32 Y alu_in2 [31:0] $end
$var reg 32 Z alu_out [31:0] $end
$var reg 1 [ zero_flag $end
$var reg 1 \ take_branch $end
$var reg 32 ] mem_load_data [31:0] $end
$var reg 16 ^ mem_addr [15:0] $end
$var reg 8 _ mem_store_data [7:0] $end
$var reg 8 ` mem_q [7:0] $end

$scope module decoder $end
$var parameter 7 a R $end
$var parameter 7 b I $end
$var parameter 7 c L $end
$var parameter 7 d S $end
$var parameter 7 e B $end
$var parameter 7 f JAL $end
$var parameter 7 g JALR $end
$var parameter 7 h LUI $end
$var parameter 7 i AUIPC $end
$var wire 1 j inst [31] $end
$var wire 1 k inst [30] $end
$var wire 1 l inst [29] $end
$var wire 1 m inst [28] $end
$var wire 1 n inst [27] $end
$var wire 1 o inst [26] $end
$var wire 1 p inst [25] $end
$var wire 1 q inst [24] $end
$var wire 1 r inst [23] $end
$var wire 1 s inst [22] $end
$var wire 1 t inst [21] $end
$var wire 1 u inst [20] $end
$var wire 1 v inst [19] $end
$var wire 1 w inst [18] $end
$var wire 1 x inst [17] $end
$var wire 1 y inst [16] $end
$var wire 1 z inst [15] $end
$var wire 1 { inst [14] $end
$var wire 1 | inst [13] $end
$var wire 1 } inst [12] $end
$var wire 1 ~ inst [11] $end
$var wire 1 !! inst [10] $end
$var wire 1 "! inst [9] $end
$var wire 1 #! inst [8] $end
$var wire 1 $! inst [7] $end
$var wire 1 %! inst [6] $end
$var wire 1 &! inst [5] $end
$var wire 1 '! inst [4] $end
$var wire 1 (! inst [3] $end
$var wire 1 )! inst [2] $end
$var wire 1 *! inst [1] $end
$var wire 1 +! inst [0] $end
$var reg 5 ,! rs1 [4:0] $end
$var reg 5 -! rs2 [4:0] $end
$var reg 5 .! rd [4:0] $end
$var reg 32 /! imm [31:0] $end
$var reg 4 0! alu_op [3:0] $end
$var reg 1 1! alu_src_imm $end
$var reg 1 2! alu_src_pc $end
$var reg 1 3! mem_load $end
$var reg 1 4! mem_store $end
$var integer 32 5! load_op $end
$var integer 32 6! store_op $end
$var reg 1 7! wb $end
$var integer 32 8! wb_src $end
$var reg 1 9! branch $end
$var reg 1 :! jump $end
$var integer 32 ;! branch_op $end
$upscope $end

$scope module regfile $end
$var wire 1 @ clk $end
$var wire 1 A rst $end
$var wire 1 <! rs1 [4] $end
$var wire 1 =! rs1 [3] $end
$var wire 1 >! rs1 [2] $end
$var wire 1 ?! rs1 [1] $end
$var wire 1 @! rs1 [0] $end
$var wire 1 A! rs2 [4] $end
$var wire 1 B! rs2 [3] $end
$var wire 1 C! rs2 [2] $end
$var wire 1 D! rs2 [1] $end
$var wire 1 E! rs2 [0] $end
$var wire 1 F! rd [4] $end
$var wire 1 G! rd [3] $end
$var wire 1 H! rd [2] $end
$var wire 1 I! rd [1] $end
$var wire 1 J! rd [0] $end
$var wire 1 K! write_data [31] $end
$var wire 1 L! write_data [30] $end
$var wire 1 M! write_data [29] $end
$var wire 1 N! write_data [28] $end
$var wire 1 O! write_data [27] $end
$var wire 1 P! write_data [26] $end
$var wire 1 Q! write_data [25] $end
$var wire 1 R! write_data [24] $end
$var wire 1 S! write_data [23] $end
$var wire 1 T! write_data [22] $end
$var wire 1 U! write_data [21] $end
$var wire 1 V! write_data [20] $end
$var wire 1 W! write_data [19] $end
$var wire 1 X! write_data [18] $end
$var wire 1 Y! write_data [17] $end
$var wire 1 Z! write_data [16] $end
$var wire 1 [! write_data [15] $end
$var wire 1 \! write_data [14] $end
$var wire 1 ]! write_data [13] $end
$var wire 1 ^! write_data [12] $end
$var wire 1 _! write_data [11] $end
$var wire 1 `! write_data [10] $end
$var wire 1 a! write_data [9] $end
$var wire 1 b! write_data [8] $end
$var wire 1 c! write_data [7] $end
$var wire 1 d! write_data [6] $end
$var wire 1 e! write_data [5] $end
$var wire 1 f! write_data [4] $end
$var wire 1 g! write_data [3] $end
$var wire 1 h! write_data [2] $end
$var wire 1 i! write_data [1] $end
$var wire 1 j! write_data [0] $end
$var wire 1 k! we $end
$var reg 32 l! rs1_data [31:0] $end
$var reg 32 m! rs2_data [31:0] $end
$var integer 32 n! i $end
$upscope $end

$scope module alu $end
$var wire 1 o! in1 [31] $end
$var wire 1 p! in1 [30] $end
$var wire 1 q! in1 [29] $end
$var wire 1 r! in1 [28] $end
$var wire 1 s! in1 [27] $end
$var wire 1 t! in1 [26] $end
$var wire 1 u! in1 [25] $end
$var wire 1 v! in1 [24] $end
$var wire 1 w! in1 [23] $end
$var wire 1 x! in1 [22] $end
$var wire 1 y! in1 [21] $end
$var wire 1 z! in1 [20] $end
$var wire 1 {! in1 [19] $end
$var wire 1 |! in1 [18] $end
$var wire 1 }! in1 [17] $end
$var wire 1 ~! in1 [16] $end
$var wire 1 !" in1 [15] $end
$var wire 1 "" in1 [14] $end
$var wire 1 #" in1 [13] $end
$var wire 1 $" in1 [12] $end
$var wire 1 %" in1 [11] $end
$var wire 1 &" in1 [10] $end
$var wire 1 '" in1 [9] $end
$var wire 1 (" in1 [8] $end
$var wire 1 )" in1 [7] $end
$var wire 1 *" in1 [6] $end
$var wire 1 +" in1 [5] $end
$var wire 1 ," in1 [4] $end
$var wire 1 -" in1 [3] $end
$var wire 1 ." in1 [2] $end
$var wire 1 /" in1 [1] $end
$var wire 1 0" in1 [0] $end
$var wire 1 1" in2 [31] $end
$var wire 1 2" in2 [30] $end
$var wire 1 3" in2 [29] $end
$var wire 1 4" in2 [28] $end
$var wire 1 5" in2 [27] $end
$var wire 1 6" in2 [26] $end
$var wire 1 7" in2 [25] $end
$var wire 1 8" in2 [24] $end
$var wire 1 9" in2 [23] $end
$var wire 1 :" in2 [22] $end
$var wire 1 ;" in2 [21] $end
$var wire 1 <" in2 [20] $end
$var wire 1 =" in2 [19] $end
$var wire 1 >" in2 [18] $end
$var wire 1 ?" in2 [17] $end
$var wire 1 @" in2 [16] $end
$var wire 1 A" in2 [15] $end
$var wire 1 B" in2 [14] $end
$var wire 1 C" in2 [13] $end
$var wire 1 D" in2 [12] $end
$var wire 1 E" in2 [11] $end
$var wire 1 F" in2 [10] $end
$var wire 1 G" in2 [9] $end
$var wire 1 H" in2 [8] $end
$var wire 1 I" in2 [7] $end
$var wire 1 J" in2 [6] $end
$var wire 1 K" in2 [5] $end
$var wire 1 L" in2 [4] $end
$var wire 1 M" in2 [3] $end
$var wire 1 N" in2 [2] $end
$var wire 1 O" in2 [1] $end
$var wire 1 P" in2 [0] $end
$var wire 1 Q" op [3] $end
$var wire 1 R" op [2] $end
$var wire 1 S" op [1] $end
$var wire 1 T" op [0] $end
$var reg 32 U" out [31:0] $end
$var reg 1 V" zero_flag $end
$upscope $end
$upscope $end
$upscope $end
$enddefinitions $end
#0
$dumpvars
1!
1"
b10000000010010100 #
b10000000010011000 $
b1000000000000000000000 %
b1000000000000100110111 &
b0 '
b10 (
b10 )
b1000000000000000000000 *
b0 +
1,
0-
0.
0/
12
04
05
b0 7
b0 8
b0 9
b1000000000000000000000 :
b1000000000000000000000 ;
0<
0=
b10000000010010100 B
b10000000010011000 C
b1000000000000000000000 D
b1000000000000100110111 E
b0 F
b10 G
b10 H
b1000000000000000000000 I
b0 J
1K
0L
0M
0N
1Q
0S
0T
b0 V
b0 W
b0 X
b1000000000000000000000 Y
b1000000000000000000000 Z
0[
0\
b0 ]
b0 ^
b0 _
bx `
b0 ,!
b10 -!
b10 .!
b1000000000000000000000 /!
b0 0!
11!
02!
03!
04!
17!
09!
0:!
b0 l!
b0 m!
b1000000000000000000000 U"
0V"
b10000000010010100 >
b10000000011001000 ?
b110011 a
b10011 b
b11 c
b100011 d
b1100011 e
b1101111 f
b1100111 g
b110111 h
b10111 i
b0 0
b0 1
b0 3
b0 6
b0 O
b0 P
b0 R
b0 U
b0 5!
b0 6!
b0 8!
b0 ;!
b100000 n!
1A
1@
0T"
0S"
0R"
0Q"
0P"
0O"
0N"
0M"
0L"
0K"
0J"
0I"
0H"
0G"
0F"
0E"
0D"
0C"
0B"
0A"
0@"
0?"
0>"
0="
0<"
1;"
0:"
09"
08"
07"
06"
05"
04"
03"
02"
01"
00"
0/"
0."
0-"
0,"
0+"
0*"
0)"
0("
0'"
0&"
0%"
0$"
0#"
0""
0!"
0~!
0}!
0|!
0{!
0z!
0y!
0x!
0w!
0v!
0u!
0t!
0s!
0r!
0q!
0p!
0o!
1k!
0j!
0i!
0h!
0g!
0f!
0e!
0d!
0c!
0b!
0a!
0`!
0_!
0^!
0]!
0\!
0[!
0Z!
0Y!
0X!
0W!
0V!
1U!
0T!
0S!
0R!
0Q!
0P!
0O!
0N!
0M!
0L!
0K!
0J!
1I!
0H!
0G!
0F!
0E!
1D!
0C!
0B!
0A!
0@!
0?!
0>!
0=!
0<!
1+!
1*!
1)!
0(!
1'!
1&!
0%!
0$!
1#!
0"!
0!!
0~
0}
0|
0{
0z
0y
0x
0w
0v
0u
1t
0s
0r
0q
0p
0o
0n
0m
0l
0k
0j
$end
#5000
0!
0"
0@
0A
#10000
1!
1@
b10000000010011000 B
b1000000000000000000000 m!
b10000000010011000 #
b1000000000000000000000 W
b1000000000000000000000 8
b100000000000000011101111 E
b10000000010011100 C
b10000000010011100 $
b100000000000000011101111 &
1(!
0'!
1%!
1$!
0#!
0t
1r
b1 .!
b1000 -!
01!
07!
b0 /!
12!
11!
b1000 /!
1:!
1T
1L
b1000 I
0Q
b1000 G
b1 H
b1 )
b1000 (
02
b1000 *
1-
15
0k!
1J!
0I!
0D!
1B!
b0 m!
b0 W
b0 8
b1000 Y
b10000000010011000 X
b10000000010100000 C
b10000000010100000 $
b10000000010011000 9
b1000 :
1-"
1,"
1)"
1~!
1M"
0;"
b10000000010100000 U"
b10000000010100000 Z
b10000000010100000 ;
b10100000 ^
b10000000010100000 D
b10000000010011100 C
b10000000010100000 C
b10000000010100000 %
1e!
1c!
1Z!
0U!
#15000
0!
0@
#20000
1!
1@
b10000000010100000 B
b10000000010100000 #
b100000000010100010011 E
b10000000010100100 C
b10000000010101000 C
b10000000010100000 X
b10000000010100000 9
b10000000010101000 $
b100000000010100010011 &
0-"
0,"
1+"
0)!
0(!
1'!
0&!
0%!
0$!
1#!
1!!
1u
0r
b1010 .!
b1 -!
01!
02!
0:!
b0 /!
11!
17!
b1 /!
b10000000010101000 U"
b10000000010101000 Z
1Q
b1 I
0T
0L
b1 G
b1010 H
b1010 )
b1 (
0-
05
b1 *
12
b10000000010101000 ;
b10101000 ^
1k!
0J!
1I!
1G!
1E!
0B!
b0 X
b1 Y
b10000000010101000 D
b10000000010100100 C
b10000000010100100 $
b10000000010101000 %
b1 :
b0 9
1g!
1P"
0M"
0+"
0)"
0~!
b1 U"
b1 Z
b1 ;
b1 ^
b1 D
b1 %
1j!
0g!
0e!
0c!
0Z!
#25000
0!
0@
#30000
1!
1@
b10000000010100100 B
b10000000010100100 #
b100000000010110010011 E
b10000000010101000 C
b10000000010101000 $
b100000000010110010011 &
1$!
b1011 .!
01!
07!
b0 /!
11!
17!
b1 /!
b1011 H
b1011 )
1J!
#35000
0!
0@
#40000
1!
1@
b10000000010101000 B
b10000000010101000 #
b10000000000011000010011 E
b10000000010101100 C
b10000000010101100 $
b10000000000011000010011 &
0$!
0#!
1"!
0u
1s
b1100 .!
b100 -!
01!
07!
b0 /!
11!
17!
b100 /!
b100 I
b100 G
b1100 H
b1100 )
b100 (
b100 *
0J!
0I!
1H!
0E!
1C!
b100 Y
b100 :
0P"
1N"
b100 U"
b100 Z
b100 ;
b100 ^
b100 D
b100 %
0j!
1h!
#45000
0!
0@
#50000
1!
1@
b10000000010101100 B
b10000000010101100 #
b1100000110001100011 E
b10000000010110000 C
b10000000010110000 $
b1100000110001100011 &
0'!
1&!
1%!
0"!
1~
1x
1w
0s
b11000 .!
b1100 ,!
b0 -!
01!
07!
b0 /!
b11000 /!
19!
1S
b11000 I
0Q
0K
b0 G
b1100 F
b11000 H
b11000 )
b1100 '
b0 (
0,
02
b11000 *
14
0k!
0H!
1F!
1>!
1=!
0C!
b100 l!
b100 V
b100 7
b100 X
b0 Y
b0 :
b100 9
0N"
1."
#55000
0!
0@
#60000
1!
1@
b10000000010110000 B
b10000000010110000 #
b1010000011010110011 E
b10000000010110100 C
b10000000010110100 $
b1010000011010110011 &
1'!
0%!
1$!
1"!
0~
1y
0x
b1101 .!
b1010 ,!
09!
b0 /!
17!
1Q
b0 I
0S
b1010 F
b1101 H
b1101 )
b1010 '
04
b0 *
12
1k!
1J!
1H!
0F!
1?!
0>!
b1 l!
b1 V
b1 7
b1 X
b1 9
10"
0."
b1 U"
b1 Z
b1 ;
b1 ^
b1 D
b1 %
1j!
0h!
#65000
0!
0@
#70000
1!
1@
b10000000010110100 B
b10000000010110100 #
b101101010000010100110011 E
b10000000010111000 C
b10000000010111000 $
b101101010000010100110011 &
0$!
1#!
0"!
1u
1t
1r
b1010 .!
b1011 -!
07!
17!
b1011 G
b1010 H
b1010 )
b1011 (
0J!
1I!
0H!
1E!
1D!
1B!
b1 m!
b1 W
b1 8
b1 Y
b1 :
1P"
b10 U"
b10 Z
b10 ;
b10 ^
b10 D
b10 %
0j!
1i!
#75000
0!
0@
#80000
1!
1@
b10000000010111000 B
b10 l!
b10000000010111000 #
b10 V
b10 7
b1101000010110110011 E
b10000000010111100 C
b10 X
b10 9
b10000000010111100 $
b1101000010110110011 &
00"
1/"
1$!
1z
0y
1x
0u
0t
0r
b1011 .!
b1101 ,!
b0 -!
07!
17!
b11 U"
b11 Z
b0 G
b1101 F
b1011 H
b1011 )
b1101 '
b0 (
b11 ;
b11 ^
1J!
1@!
0?!
1>!
0E!
0D!
0B!
b0 m!
b1 l!
b1 V
b0 W
b0 8
b1 7
b0 Y
b1 X
b11 D
b11 %
b1 9
b0 :
1j!
10"
0/"
0P"
b1 U"
b1 Z
b1 ;
b1 ^
b1 D
b1 %
0i!
#85000
0!
0@
#90000
1!
1@
b10000000010111100 B
b10000000010111100 #
b11111111111101100000011000010011 E
b10000000011000000 C
b10000000011000000 $
b11111111111101100000011000010011 &
0&!
0$!
0#!
1"!
0z
1u
1t
1s
1r
1q
1p
1o
1n
1m
1l
1k
1j
b1100 .!
b1100 ,!
b11111 -!
07!
11!
17!
b11111111111111111111111111111111 /!
b11111111111111111111111111111111 I
1K
b11111 G
b1100 F
b1100 H
b1100 )
b1100 '
b11111 (
1,
b11111111111111111111111111111111 *
0J!
0I!
1H!
0@!
1E!
1D!
1C!
1B!
1A!
b100 l!
b100 V
b100 7
b100 X
b11111111111111111111111111111111 Y
b11111111111111111111111111111111 :
b100 9
1P"
1O"
1N"
1M"
1L"
1K"
1J"
1I"
1H"
1G"
1F"
1E"
1D"
1C"
1B"
1A"
1@"
1?"
1>"
1="
1<"
1;"
1:"
19"
18"
17"
16"
15"
14"
13"
12"
11"
00"
1."
b11 U"
b11 Z
b11 ;
b11 ^
b11 D
b11 %
1i!
#95000
0!
0@
#100000
1!
1@
b10000000011000000 B
b10000000011000000 #
b11 l!
b11 V
b11 7
b11111110110111111111000001101111 E
b10000000011000100 C
b11 X
b11 9
b10000000011000100 $
b11111110110111111111000001101111 &
10"
1/"
0."
1)!
1(!
0'!
1&!
1%!
0"!
0!!
1}
1|
1{
1z
1y
1v
0t
0q
b0 .!
b11111 ,!
b1101 -!
01!
07!
b0 /!
12!
11!
b11111111111111111111111111101100 /!
1:!
b10 U"
b10 Z
1T
1L
b11111111111111111111111111101100 I
0Q
b1101 G
b11111 F
b0 H
b0 )
b11111 '
b1101 (
02
b11111111111111111111111111101100 *
1-
15
b10 ;
b10 ^
0k!
0H!
0G!
1@!
1?!
1<!
0D!
0A!
b1 m!
b0 l!
b0 V
b1 W
b1 8
b0 7
b11111111111111111111111111101100 Y
b10000000011000000 X
b10000000010101100 C
b10 D
b10 %
b10000000010101100 $
b10000000011000000 9
b11111111111111111111111111101100 :
0j!
00"
0/"
1*"
1)"
1~!
0P"
0O"
0L"
b10000000010101100 U"
b10000000010101100 Z
b10000000010101100 ;
b10101100 ^
b10000000010101100 D
b10000000011000100 C
b10000000010101100 C
b10000000010101100 %
0i!
1h!
1g!
1e!
1c!
1Z!
#105000
0!
0@
#110000
1!
1@
b10000000010101100 B
b10000000010101100 #
b1100000110001100011 E
b10000000010110000 C
b10000000010011000 C
b10000000010101100 X
b10000000010101100 9
b10000000010011000 $
b1100000110001100011 &
1."
1-"
1+"
0*"
0)!
0(!
1!!
1~
0}
0|
0{
0z
0y
0v
0u
0s
0r
0p
0o
0n
0m
0l
0k
0j
b11000 .!
b1100 ,!
b0 -!
01!
02!
0:!
b0 /!
b11000 /!
19!
b10000000010011000 U"
b10000000010011000 Z
1S
b11000 I
0T
0L
0K
b0 G
b1100 F
b11000 H
b11000 )
b1100 '
b0 (
0,
0-
05
b11000 *
14
b10000000010011000 ;
b10011000 ^
1G!
1F!
0@!
0?!
0<!
0E!
0C!
0B!
b0 m!
b11 l!
b11 V
b0 W
b0 8
b11 7
b11 X
b0 Y
b10000000010011000 D
b10000000010110000 C
b10000000010110000 $
b10000000010011000 %
b0 :
b11 9
0h!
1f!
0e!
0N"
0M"
0K"
0J"
0I"
0H"
0G"
0F"
0E"
0D"
0C"
0B"
0A"
0@"
0?"
0>"
0="
0<"
0;"
0:"
09"
08"
07"
06"
05"
04"
03"
02"
01"
10"
1/"
0."
0-"
0+"
0)"
0~!
b11 U"
b11 Z
b11 ;
b11 ^
b11 D
b11 %
1j!
1i!
0g!
0f!
0c!
0Z!
#115000
0!
0@
#120000
1!
1@
b10000000010110000 B
b10000000010110000 #
b1010000011010110011 E
b10000000010110100 C
b10000000010110100 $
b1010000011010110011 &
1'!
0%!
1$!
1"!
0~
1y
0x
b1101 .!
b1010 ,!
09!
b0 /!
17!
1Q
b0 I
0S
b1010 F
b1101 H
b1101 )
b1010 '
04
b0 *
12
1k!
1J!
1H!
0F!
1?!
0>!
b10 l!
b10 V
b10 7
b10 X
b10 9
00"
b10 U"
b10 Z
b10 ;
b10 ^
b10 D
b10 %
0j!
#125000
0!
0@
#130000
1!
1@
b10000000010110100 B
b10000000010110100 #
b101101010000010100110011 E
b10000000010111000 C
b10000000010111000 $
b101101010000010100110011 &
0$!
1#!
0"!
1u
1t
1r
b1010 .!
b1011 -!
07!
17!
b1011 G
b1010 H
b1010 )
b1011 (
0J!
1I!
0H!
1E!
1D!
1B!
b1 m!
b1 W
b1 8
b1 Y
b1 :
1P"
b11 U"
b11 Z
b11 ;
b11 ^
b11 D
b11 %
1j!
#135000
0!
0@
#140000
1!
1@
b10000000010111000 B
b11 l!
b10000000010111000 #
b11 V
b11 7
b1101000010110110011 E
b10000000010111100 C
b11 X
b11 9
b10000000010111100 $
b1101000010110110011 &
10"
1$!
1z
0y
1x
0u
0t
0r
b1011 .!
b1101 ,!
b0 -!
07!
17!
b100 U"
b100 Z
b0 G
b1101 F
b1011 H
b1011 )
b1101 '
b0 (
b100 ;
b100 ^
1J!
1@!
0?!
1>!
0E!
0D!
0B!
b0 m!
b10 l!
b10 V
b0 W
b0 8
b10 7
b0 Y
b10 X
b100 D
b100 %
b10 9
b0 :
0j!
0i!
1h!
00"
0P"
b10 U"
b10 Z
b10 ;
b10 ^
b10 D
b10 %
1i!
0h!
#145000
0!
0@
#150000
1!
1@
b10000000010111100 B
b10000000010111100 #
b11111111111101100000011000010011 E
b10000000011000000 C
b10000000011000000 $
b11111111111101100000011000010011 &
0&!
0$!
0#!
1"!
0z
1u
1t
1s
1r
1q
1p
1o
1n
1m
1l
1k
1j
b1100 .!
b1100 ,!
b11111 -!
07!
11!
17!
b11111111111111111111111111111111 /!
b11111111111111111111111111111111 I
1K
b11111 G
b1100 F
b1100 H
b1100 )
b1100 '
b11111 (
1,
b11111111111111111111111111111111 *
0J!
0I!
1H!
0@!
1E!
1D!
1C!
1B!
1A!
b11 l!
b11 V
b11 7
b11 X
b11111111111111111111111111111111 Y
b11111111111111111111111111111111 :
b11 9
1P"
1O"
1N"
1M"
1L"
1K"
1J"
1I"
1H"
1G"
1F"
1E"
1D"
1C"
1B"
1A"
1@"
1?"
1>"
1="
1<"
1;"
1:"
19"
18"
17"
16"
15"
14"
13"
12"
11"
10"
#155000
0!
0@
#160000
1!
1@
b10000000011000000 B
b10 l!
b10000000011000000 #
b10 V
b10 7
b11111110110111111111000001101111 E
b10000000011000100 C
b10 X
b10 9
b10000000011000100 $
b11111110110111111111000001101111 &
00"
1)!
1(!
0'!
1&!
1%!
0"!
0!!
1}
1|
1{
1z
1y
1v
0t
0q
b0 .!
b11111 ,!
b1101 -!
01!
07!
b0 /!
12!
11!
b11111111111111111111111111101100 /!
1:!
b1 U"
b1 Z
1T
1L
b11111111111111111111111111101100 I
0Q
b1101 G
b11111 F
b0 H
b0 )
b11111 '
b1101 (
02
b11111111111111111111111111101100 *
1-
15
b1 ;
b1 ^
0k!
0H!
0G!
1@!
1?!
1<!
0D!
0A!
b10 m!
b0 l!
b0 V
b10 W
b10 8
b0 7
b11111111111111111111111111101100 Y
b10000000011000000 X
b1 D
b10000000010101100 C
b10000000010101100 $
b1 %
b10000000011000000 9
b11111111111111111111111111101100 :
1j!
0i!
0/"
1*"
1)"
1~!
0P"
0O"
0L"
b10000000010101100 U"
b10000000010101100 Z
b10000000010101100 ;
b10101100 ^
b10000000010101100 D
b10000000011000100 C
b10000000010101100 C
b10000000010101100 %
0j!
1h!
1g!
1e!
1c!
1Z!
#165000
0!
0@
#170000
1!
1@
b10000000010101100 B
b10000000010101100 #
b1100000110001100011 E
b10000000010110000 C
b10000000010011000 C
b10000000010101100 X
b10000000010101100 9
b10000000010011000 $
b1100000110001100011 &
1."
1-"
1+"
0*"
0)!
0(!
1!!
1~
0}
0|
0{
0z
0y
0v
0u
0s
0r
0p
0o
0n
0m
0l
0k
0j
b11000 .!
b1100 ,!
b0 -!
01!
02!
0:!
b0 /!
b11000 /!
19!
b10000000010011000 U"
b10000000010011000 Z
1S
b11000 I
0T
0L
0K
b0 G
b1100 F
b11000 H
b11000 )
b1100 '
b0 (
0,
0-
05
b11000 *
14
b10000000010011000 ;
b10011000 ^
1G!
1F!
0@!
0?!
0<!
0E!
0C!
0B!
b0 m!
b10 l!
b10 V
b0 W
b0 8
b10 7
b10 X
b0 Y
b10000000010011000 D
b10000000010110000 C
b10000000010110000 $
b10000000010011000 %
b0 :
b10 9
0h!
1f!
0e!
0N"
0M"
0K"
0J"
0I"
0H"
0G"
0F"
0E"
0D"
0C"
0B"
0A"
0@"
0?"
0>"
0="
0<"
0;"
0:"
09"
08"
07"
06"
05"
04"
03"
02"
01"
1/"
0."
0-"
0+"
0)"
0~!
b10 U"
b10 Z
b10 ;
b10 ^
b10 D
b10 %
1i!
0g!
0f!
0c!
0Z!
#175000
0!
0@
#180000
1!
1@
b10000000010110000 B
b10000000010110000 #
b1010000011010110011 E
b10000000010110100 C
b10000000010110100 $
b1010000011010110011 &
1'!
0%!
1$!
1"!
0~
1y
0x
b1101 .!
b1010 ,!
09!
b0 /!
17!
1Q
b0 I
0S
b1010 F
b1101 H
b1101 )
b1010 '
04
b0 *
12
1k!
1J!
1H!
0F!
1?!
0>!
b11 l!
b11 V
b11 7
b11 X
b11 9
10"
b11 U"
b11 Z
b11 ;
b11 ^
b11 D
b11 %
1j!
#185000
0!
0@
#190000
1!
1@
b10000000010110100 B
b10000000010110100 #
b101101010000010100110011 E
b10000000010111000 C
b10000000010111000 $
b101101010000010100110011 &
0$!
1#!
0"!
1u
1t
1r
b1010 .!
b1011 -!
07!
17!
b1011 G
b1010 H
b1010 )
b1011 (
0J!
1I!
0H!
1E!
1D!
1B!
b10 m!
b10 W
b10 8
b10 Y
b10 :
1O"
b101 U"
b101 Z
b101 ;
b101 ^
b101 D
b101 %
0i!
1h!
#195000
0!
0@
#200000
1!
1@
b10000000010111000 B
b101 l!
b10000000010111000 #
b101 V
b101 7
b1101000010110110011 E
b10000000010111100 C
b101 X
b101 9
b10000000010111100 $
b1101000010110110011 &
0/"
1."
1$!
1z
0y
1x
0u
0t
0r
b1011 .!
b1101 ,!
b0 -!
07!
17!
b111 U"
b111 Z
b0 G
b1101 F
b1011 H
b1011 )
b1101 '
b0 (
b111 ;
b111 ^
1J!
1@!
0?!
1>!
0E!
0D!
0B!
b0 m!
b11 l!
b11 V
b0 W
b0 8
b11 7
b0 Y
b11 X
b111 D
b111 %
b11 9
b0 :
1i!
1/"
0."
0O"
b11 U"
b11 Z
b11 ;
b11 ^
b11 D
b11 %
0h!
#205000
0!
0@
#210000
1!
1@
b10000000010111100 B
b10000000010111100 #
b11111111111101100000011000010011 E
b10000000011000000 C
b10000000011000000 $
b11111111111101100000011000010011 &
0&!
0$!
0#!
1"!
0z
1u
1t
1s
1r
1q
1p
1o
1n
1m
1l
1k
1j
b1100 .!
b1100 ,!
b11111 -!
07!
11!
17!
b11111111111111111111111111111111 /!
b11111111111111111111111111111111 I
1K
b11111 G
b1100 F
b1100 H
b1100 )
b1100 '
b11111 (
1,
b11111111111111111111111111111111 *
0J!
0I!
1H!
0@!
1E!
1D!
1C!
1B!
1A!
b10 l!
b10 V
b10 7
b10 X
b11111111111111111111111111111111 Y
b11111111111111111111111111111111 :
b10 9
1P"
1O"
1N"
1M"
1L"
1K"
1J"
1I"
1H"
1G"
1F"
1E"
1D"
1C"
1B"
1A"
1@"
1?"
1>"
1="
1<"
1;"
1:"
19"
18"
17"
16"
15"
14"
13"
12"
11"
00"
b1 U"
b1 Z
b1 ;
b1 ^
b1 D
b1 %
0i!
#215000
0!
0@
#220000
1!
1@
b10000000011000000 B
b1 l!
b10000000011000000 #
b1 V
b1 7
b11111110110111111111000001101111 E
b10000000011000100 C
b1 X
b1 9
b10000000011000100 $
b11111110110111111111000001101111 &
10"
0/"
1)!
1(!
0'!
1&!
1%!
0"!
0!!
1}
1|
1{
1z
1y
1v
0t
0q
b0 .!
b11111 ,!
b1101 -!
01!
07!
b0 /!
12!
11!
b11111111111111111111111111101100 /!
1:!
b0 U"
1V"
1[
b0 Z
1T
1L
b11111111111111111111111111101100 I
0Q
b1101 G
b11111 F
b0 H
b0 )
b11111 '
b1101 (
02
b11111111111111111111111111101100 *
1-
15
b0 ;
b0 ^
1<
0k!
0H!
0G!
1@!
1?!
1<!
0D!
0A!
b11 m!
b0 l!
b0 V
b11 W
b11 8
b0 7
b11111111111111111111111111101100 Y
b10000000011000000 X
b10000000010101100 C
b0 D
b0 %
b10000000010101100 $
b10000000011000000 9
b11111111111111111111111111101100 :
0j!
00"
1*"
1)"
1~!
0P"
0O"
0L"
b10000000010101100 U"
0V"
0[
b10000000010101100 Z
b10000000010101100 ;
b10101100 ^
0<
b10000000010101100 D
b10000000011000100 C
b10000000010101100 C
b10000000010101100 %
1h!
1g!
1e!
1c!
1Z!
#225000
0!
0@
